…
Display the resulting table.

``` r
starwars_wide_summary <- starwars %>%
  filter(!is.na(species)) %>%
  group_by(species, gender) %>%
  summarise(mean_height = mean(height, na.rm = TRUE), .groups = "drop") %>%
  pivot_wider(
    names_from = gender, 
    values_from = mean_height
  )
print(starwars_wide_summary)
```

    ## # A tibble: 37 × 3
    ##    species   masculine feminine
    ##    <chr>         <dbl>    <dbl>
    ##  1 Aleena          79        NA
    ##  2 Besalisk       198        NA
    ##  3 Cerean         198        NA
    ##  4 Chagrian       196        NA
    ##  5 Clawdite        NA       168
    ##  6 Droid          140        96
    ##  7 Dug            112        NA
    ##  8 Ewok            88        NA
    ##  9 Geonosian      183        NA
    ## 10 Gungan         209.       NA
    ## # ℹ 27 more rows
…
Display the resulting tidy dataset.

``` r
starwars_long_format <- starwars_wide_summary %>%
  pivot_longer(
    cols = -species,
    names_to = "gender",
    values_to = "mean_height"
  ) %>%
  filter(!is.na(mean_height))

print(starwars_long_format)
```

    ## # A tibble: 41 × 3
    ##    species   gender    mean_height
    ##    <chr>     <chr>           <dbl>
    ##  1 Aleena    masculine          79
    ##  2 Besalisk  masculine         198
    ##  3 Cerean    masculine         198
    ##  4 Chagrian  masculine         196
    ##  5 Clawdite  feminine          168
    ##  6 Droid     masculine         140
    ##  7 Droid     feminine           96
    ##  8 Dug       masculine         112
    ##  9 Ewok      masculine          88
    ## 10 Geonosian masculine         183
    ## # ℹ 31 more rows
…
``` r
starwars_updated
```

    ## # A tibble: 87 × 16
    ##    name     height  mass hair_color skin_color eye_color birth_year sex   gender
    ##    <chr>     <int> <dbl> <chr>      <chr>      <chr>          <dbl> <chr> <chr> 
    ##  1 Luke Sk…    172    77 blond      fair       blue            19   male  mascu…
    ##  2 C-3PO       167    75 <NA>       gold       yellow         112   none  mascu…
    ##  3 R2-D2        96    32 <NA>       white, bl… red             33   none  mascu…
    ##  4 Darth V…    202   136 none       white      yellow          41.9 male  mascu…
    ##  5 Leia Or…    150    49 brown      light      brown           19   fema… femin…
    ##  6 Owen La…    178   120 brown, gr… light      blue            52   male  mascu…
    ##  7 Beru Wh…    165    75 brown      light      blue            47   fema… femin…
    ##  8 R5-D4        97    32 <NA>       white, red red             NA   none  mascu…
    ##  9 Biggs D…    183    84 black      light      brown           24   male  mascu…
    ## 10 Obi-Wan…    182    77 auburn, w… fair       blue-gray       57   male  mascu…
    ## # ℹ 77 more rows
    ## # ℹ 7 more variables: homeworld <chr>, species <chr>, films <list>,
    ## #   vehicles <list>, starships <list>, BMI <dbl>, height_cat <chr>
…
